<svg width="42" height="287" viewBox="0 0 42 287" fill="none" xmlns="http://www.w3.org/2000/svg">
<path d="M20.5449 24.8989V272.202" stroke="#F96A19" stroke-width="8.70786"/>
<circle cx="20.5449" cy="20.5449" r="18.5449" fill="#150445" stroke="#EFF1FA" stroke-width="4"/>
<circle cx="20.5449" cy="102.399" r="18.5449" fill="#150445" stroke="#EFF1FA" stroke-width="4"/>
<circle cx="20.5449" cy="184.253" r="18.5449" fill="#150445" stroke="#EFF1FA" stroke-width="4"/>
<circle cx="20.5449" cy="266.107" r="18.5449" fill="#150445" stroke="#EFF1FA" stroke-width="4"/>
</svg>
