<svg width="70" height="71" viewBox="0 0 70 71" fill="none" xmlns="http://www.w3.org/2000/svg">
<ellipse cx="34.7018" cy="35.1101" rx="34.7018" ry="35.1101" fill="#150445"/>
<path d="M37.1517 17C37.5815 17.027 38.0118 17.0471 38.4411 17.0814C42.0616 17.3704 45.1867 18.7889 47.8442 21.2709C49.9783 23.264 51.5211 25.6386 52.2957 28.4743C53.3441 32.3123 53.3012 36.1212 51.6291 39.782C49.6918 44.0238 46.6024 47.1001 42.2065 48.7404C40.4112 49.41 38.5453 49.7055 36.6275 49.6712C35.4478 49.6502 34.2855 49.5081 33.1427 49.2139C33.0139 49.181 32.9391 49.2161 32.8426 49.2961C32.3129 49.735 31.7738 50.1619 31.2411 50.5969C31.0511 50.7519 30.8827 50.7523 30.6655 50.6217C28.698 49.4404 26.8976 48.0416 25.2455 46.4454C23.2083 44.4772 21.5039 42.2478 20.0793 39.7965C20.0036 39.6668 20.027 39.5709 20.1048 39.4664C20.547 38.8747 20.9823 38.2774 21.4359 37.6943C21.5566 37.5389 21.5953 37.4117 21.5456 37.2134C21.1689 35.7157 21.0643 34.1898 21.1379 32.6514C21.2327 30.6754 21.6604 28.7736 22.4401 26.9556C23.2495 25.0691 24.3855 23.4078 25.8109 21.9367C27.4672 20.2275 29.3701 18.8993 31.5927 18.0541C33.2545 17.4222 34.9738 17.0706 36.7521 17.024C36.8006 17.0227 36.8486 17.0081 36.8966 17C36.9817 17 37.0667 17 37.1517 17ZM50.3138 33.4157C50.3125 32.159 50.1382 30.958 49.8223 29.7742C48.0797 23.2473 41.6696 18.7114 34.6668 19.956C32.653 20.314 30.7565 21.0234 29.152 22.3148C24.916 25.7246 23.176 30.1574 23.9982 35.5706C24.4514 38.5544 25.7829 41.0999 27.9634 43.1674C31.4244 46.4489 35.5052 47.5933 40.1485 46.5812C42.6831 46.0288 44.8581 44.7846 46.6389 42.8694C49.1204 40.202 50.2772 37.0135 50.3138 33.4157Z" fill="white"/>
<path d="M17.0004 43.8885C17.4864 43.1422 18.025 42.4392 18.6572 41.8115C18.8697 41.6004 18.8952 41.606 19.0708 41.8534C21.4928 45.2654 24.3038 48.2934 27.7163 50.7262C27.8655 50.8324 28.0173 50.9351 28.2022 51.0627C27.9811 51.2897 27.7894 51.5166 27.5671 51.7075C27.0888 52.1194 26.5948 52.5125 26.108 52.9141C25.9843 53.0164 25.8691 53.0318 25.7254 52.9359C25.0647 52.4958 24.3879 52.0792 23.7396 51.6219C23.4837 51.4412 23.2473 51.4721 22.9786 51.5127C21.8962 51.6776 20.9478 51.3509 20.1158 50.6663C19.3178 50.0095 18.7231 49.2084 18.5156 48.1662C18.4131 47.6516 18.4097 47.1335 18.5156 46.6159C18.5326 46.5324 18.5279 46.4211 18.485 46.353C17.9952 45.5707 17.4966 44.7949 17 44.0169C17.0004 43.9741 17.0004 43.9313 17.0004 43.8885Z" fill="white"/>
<path d="M48.0015 33.7839C47.9878 35.9375 47.3803 37.9191 46.2929 39.7525C45.7789 40.6186 44.9656 41.0078 43.9729 40.9188C42.9722 40.8288 42.2809 40.2765 41.8643 39.3517C41.667 38.9137 41.4689 38.4581 41.179 38.0831C39.995 36.5524 37.9067 36.1054 36.1637 36.9707C35.6884 37.2066 35.2318 37.4896 34.7386 37.678C31.8273 38.7899 28.5347 37.5449 27.0901 34.7691C26.0022 32.6788 26.029 30.5658 27.1263 28.4816C28.5101 25.8527 30.5617 23.9962 33.3736 23.0037C37.1955 21.6545 41.6968 22.6714 44.5664 25.5444C46.5156 27.4959 47.6167 29.8482 47.9139 32.5906C47.9568 32.9871 47.973 33.3861 48.0015 33.7839Z" fill="white"/>
<path d="M40.3444 43.8645C39.0256 43.8109 37.9534 43.3061 37.1882 42.2255C36.7342 41.5845 36.471 40.8793 36.6653 40.0752C36.8749 39.2074 37.6104 38.5823 38.4938 38.503C39.3241 38.4285 40.1624 38.944 40.5102 39.7541C40.6909 40.1754 40.8652 40.6002 41.2665 40.8626C41.4246 40.9658 41.5964 41.06 41.7745 41.117C42.2821 41.2784 42.6116 41.6483 42.6737 42.1655C42.7379 42.6999 42.5041 43.2329 42.0177 43.4449C41.5955 43.629 41.133 43.721 40.6853 43.8418C40.5718 43.873 40.4464 43.8589 40.3444 43.8645Z" fill="white"/>
</svg>
