<svg width="70" height="71" viewBox="0 0 70 71" fill="none" xmlns="http://www.w3.org/2000/svg">
<ellipse cx="34.7018" cy="35.3303" rx="34.7018" ry="35.1101" fill="#150445"/>
<path fill-rule="evenodd" clip-rule="evenodd" d="M34.6666 19.3719C34.5833 19.2876 34.3334 19.2876 34.2501 19.3719C33.5004 19.9618 32.6674 20.3831 31.7511 20.8045L31.4179 20.973V20.3831V15.7483C31.4179 15.5798 31.5012 15.327 31.6678 15.1584C31.8761 14.9477 32.0843 14.7581 32.2926 14.5685C32.5008 14.3789 32.7091 14.1893 32.9173 13.9786C33.0423 13.8944 33.1464 13.8101 33.2505 13.7258C33.3546 13.6416 33.4588 13.5573 33.5837 13.473C33.5837 13.473 33.667 13.3888 33.7503 13.3888V13.5573V16.3382C33.7503 16.4228 33.7503 16.4649 33.7714 16.4859C33.7923 16.5067 33.8339 16.5067 33.9169 16.5067H34.8332C34.9998 16.5067 34.9998 16.5067 34.9998 16.4225V13.2202H35.0831C35.333 13.4309 35.5621 13.6416 35.7911 13.8522C36.0202 14.0629 36.2493 14.2736 36.4992 14.4843C36.7491 14.7371 36.9157 14.9056 37.1656 15.0741C37.2489 15.1584 37.3322 15.2427 37.3322 15.327V20.6359V20.8045C37.2905 20.8045 37.2489 20.7834 37.2072 20.7624C37.1656 20.7413 37.1239 20.7202 37.0823 20.7202C36.3326 20.2989 35.5829 19.8775 34.7499 19.4562L34.6666 19.3719ZM50.66 41.4506L52.9091 44.2315V44.3157C52.9091 44.4 52.8258 44.4843 52.7425 44.5685C52.3676 44.9056 51.9928 45.2216 51.6179 45.5377C51.2431 45.8537 50.8682 46.1697 50.4934 46.5067L48.0777 48.5292C47.7006 48.9107 47.2886 49.257 46.8644 49.6136C46.6326 49.8084 46.3972 50.0062 46.1618 50.2146C46.0785 50.2989 45.9952 50.3832 45.8286 50.3832H44.5792H43.3297C43.1908 50.3832 43.052 50.3738 42.9132 50.3644C42.6355 50.3457 42.3579 50.327 42.0802 50.3832C42.3301 50.0461 42.58 49.7933 42.8299 49.5405C43.0798 49.2455 43.3505 48.9716 43.6212 48.6978C43.8919 48.4239 44.1627 48.15 44.4126 47.8551C45.0789 47.181 45.7452 46.4226 46.4115 45.6643L46.4117 45.6641C46.5367 45.5376 46.6616 45.3902 46.7866 45.2427C46.9115 45.0952 47.0365 44.9478 47.1614 44.8214C47.4045 44.5755 47.3816 44.5538 47.3191 44.4946C47.2959 44.4727 47.2673 44.4456 47.2447 44.4C47.0861 44.1249 46.9274 43.856 46.7705 43.5899C46.3505 42.8781 45.9426 42.1867 45.5788 41.4506C45.2456 40.8607 44.8915 40.2497 44.5375 39.6388C44.1835 39.0278 43.8295 38.4169 43.4963 37.827C43.0381 37.0685 42.6008 36.2891 42.1635 35.5096C41.7262 34.7301 41.2889 33.9506 40.8307 33.1921L40.081 31.9281C40.081 31.886 40.0602 31.8438 40.0394 31.8017C40.0185 31.7596 39.9977 31.7174 39.9977 31.6753C39.9977 31.6753 39.9144 31.591 39.9144 31.5067V31.591C39.9144 31.591 39.9977 31.6753 39.9977 31.7596C40.5818 33.0727 41.1154 34.437 41.6377 35.7727C41.7858 36.1514 41.933 36.5278 42.0802 36.9C42.9965 39.0067 43.8295 41.1977 44.6624 43.3887L44.6625 43.3888C44.7041 43.5152 44.7458 43.6205 44.7874 43.7258C44.8291 43.8312 44.8707 43.9365 44.9124 44.0629C45.079 44.3157 45.079 44.6528 44.8291 44.8214C44.4126 45.2427 43.9961 45.6641 43.5796 46.1697C43.3297 46.4646 43.059 46.7596 42.7882 47.0545C42.5175 47.3494 42.2468 47.6444 41.9969 47.9393C41.7886 48.15 41.5804 48.3817 41.3722 48.6135C41.1639 48.8452 40.9557 49.077 40.7474 49.2876L39.8311 50.3832C39.7478 50.4674 39.6645 50.5517 39.4979 50.5517H37.9985C37.8736 50.5517 37.7278 50.5306 37.582 50.5096C37.4363 50.4885 37.2905 50.4674 37.1655 50.4674H36.8323C36.8323 50.5033 36.8323 50.5239 36.8388 50.5423C36.8475 50.567 36.8678 50.5876 36.9156 50.636C37.2488 51.1416 37.582 51.6472 37.9985 52.0686C38.0818 52.1528 38.0818 52.4056 37.9985 52.4899C37.6653 53.0377 37.353 53.5854 37.0406 54.1332C36.7282 54.6809 36.4159 55.2287 36.0827 55.7764C35.8744 56.1556 35.6453 56.5138 35.4163 56.8719C35.1872 57.2301 34.9581 57.5882 34.7499 57.9674L34.5 58.2202H34.4167C34.375 58.1781 34.3542 58.136 34.3334 58.0938C34.3126 58.0517 34.2917 58.0096 34.2501 57.9674C33.8175 57.0922 33.3499 56.288 32.8699 55.4627C32.6104 55.0165 32.3474 54.5641 32.0843 54.091C31.9811 53.9084 31.886 53.7338 31.7938 53.5649C31.5884 53.1881 31.3981 52.839 31.168 52.4899C31.0847 52.3214 31.0847 52.0685 31.2513 51.9C31.3394 51.7812 31.4378 51.6625 31.5392 51.54C31.7257 51.3149 31.9225 51.0774 32.0843 50.8045C32.1676 50.7202 32.2509 50.636 32.2509 50.5517C32.1676 50.4674 32.0843 50.4674 32.001 50.5517H29.8352C29.5853 50.5517 29.3354 50.4674 29.1688 50.2146C29.0855 50.0461 28.9189 49.8775 28.7523 49.709L26.7532 47.518L26.7531 47.5179C26.2533 47.0123 25.8368 46.591 25.4204 46.0854C25.1591 45.8211 24.9661 45.6028 24.7819 45.3945C24.6138 45.2043 24.453 45.0224 24.2542 44.8214C24.0876 44.6528 24.0876 44.4843 24.1709 44.3157C24.3375 43.9365 24.4833 43.5362 24.629 43.136C24.7748 42.7357 24.9206 42.3354 25.0872 41.9562L27.7528 34.7933L28.7523 32.2652C28.7692 32.231 28.7861 32.2003 28.803 32.1717C28.8 32.1748 28.797 32.1778 28.794 32.1809C28.7732 32.202 28.7523 32.223 28.7523 32.2652C28.4477 32.7274 28.174 33.221 27.8935 33.7268C27.7139 34.0509 27.5314 34.3799 27.3363 34.709C26.9198 35.4253 26.5033 36.1626 26.0868 36.9C25.6703 37.6374 25.2538 38.3747 24.8373 39.091C24.6404 39.4452 24.4434 39.8052 24.245 40.1679C23.688 41.1861 23.1191 42.2261 22.5049 43.2202C22.38 43.3888 22.2758 43.5994 22.1717 43.8101C22.0676 44.0208 21.9635 44.2315 21.8385 44.4C21.7552 44.4843 21.7552 44.5685 21.8385 44.6528L22.3383 45.1584C22.6195 45.4835 22.9006 45.7889 23.1724 46.0843C23.4643 46.4014 23.7455 46.7069 24.0043 47.0124L25.9202 48.8663C26.0868 49.0348 26.2534 49.2244 26.42 49.4141C26.5866 49.6037 26.7532 49.7933 26.9198 49.9618C27.0031 49.9618 27.0864 50.1303 27.0864 50.2146C27.0864 50.2989 26.9198 50.3832 26.8365 50.3832H26.7532H23.5045C23.1713 50.4674 22.9214 50.3832 22.6715 50.1303C22.0468 49.5826 21.422 49.0559 20.7973 48.5292C20.1725 48.0025 19.5478 47.4758 18.923 46.9281L18.923 46.9281C18.1733 46.2539 17.4236 45.5798 16.5907 44.9899C16.3408 44.9056 16.1742 44.7371 16.0909 44.4843V44.4L16.1742 44.2315L16.2575 44.1472C16.6031 43.6227 16.9885 43.1386 17.3863 42.639C17.5637 42.4161 17.7436 42.1901 17.9235 41.9562C18.1734 41.6191 18.4233 41.3031 18.6732 40.9871C18.923 40.6711 19.1729 40.3551 19.4228 40.018C19.9226 39.386 20.4016 38.7539 20.8806 38.1219C21.3595 37.4899 21.8385 36.8579 22.3383 36.2258C22.6299 35.8045 22.9422 35.4042 23.2546 35.0039C23.567 34.6037 23.8793 34.2034 24.1709 33.782C24.7123 33.0657 25.2746 32.3284 25.8369 31.591C26.3991 30.8537 26.9614 30.1163 27.5029 29.4C28.0884 28.6892 28.6328 27.9367 29.1649 27.2011C29.3898 26.8903 29.6125 26.5824 29.8352 26.282L32.001 23.5011L32.3342 22.9955C32.3342 22.9112 32.4175 22.827 32.5008 22.827C32.5008 23.1062 32.4436 23.3276 32.3767 23.587C32.3628 23.6407 32.3485 23.6961 32.3342 23.7539C32.3135 23.8794 32.2929 24.0061 32.272 24.1338C32.125 25.0356 31.97 25.9861 31.7511 26.8719C31.5012 27.8831 31.3346 28.7258 31.168 29.6528C31.0847 30.4112 30.9181 31.1697 30.7515 31.9281L30.2517 34.2876C30.1684 34.9618 30.0851 35.5517 29.9185 36.2258C29.8352 36.9 29.6686 37.7427 29.502 38.5011C29.3771 39.0489 29.273 39.5966 29.1688 40.1444C29.0647 40.6921 28.9606 41.2399 28.8356 41.7876C28.7589 42.137 28.6998 42.4863 28.6422 42.8274C28.5746 43.2269 28.509 43.615 28.4191 43.9787C28.4191 44.1472 28.4191 44.3157 28.5024 44.4843L29.2521 45.7483C29.6152 46.238 29.9343 46.7722 30.2413 47.2862C30.357 47.4798 30.471 47.6706 30.5849 47.8551L30.6682 48.6978C30.6682 48.6978 30.7515 48.782 30.8348 48.782C31.0431 48.782 31.2513 48.8031 31.4596 48.8242C31.6678 48.8452 31.8761 48.8663 32.0843 48.8663C32.1673 48.8663 32.2089 48.8663 32.2298 48.8455C32.2509 48.8245 32.2509 48.7824 32.2509 48.6978V48.0236L32.001 47.518C31.8685 47.2834 31.7492 47.0488 31.6325 46.8195C31.4559 46.4722 31.2854 46.1371 31.0847 45.8326C30.9628 45.7092 30.8854 45.5858 30.7874 45.4294C30.7515 45.3721 30.7129 45.3104 30.6682 45.2427L30.4183 44.7371V44.1472C30.4183 43.7058 30.4818 43.3286 30.5533 42.9035C30.5638 42.8417 30.5743 42.7788 30.5849 42.7146C30.7515 42.0405 30.8348 41.4506 30.9181 40.7764C31.0847 40.1023 31.168 39.5124 31.2513 38.9225L31.2513 38.9225C31.3346 38.3326 31.4179 37.7427 31.5012 37.2371C31.5429 37.0264 31.5637 36.8157 31.5845 36.6051C31.6053 36.3944 31.6262 36.1837 31.6678 35.973C31.7095 35.636 31.7511 35.3199 31.7928 35.0039C31.8344 34.6879 31.8761 34.3719 31.9177 34.0348C32.001 33.6135 32.0635 33.1921 32.126 32.7708C32.1884 32.3494 32.2509 31.9281 32.3342 31.5067C32.3724 31.1978 32.428 30.8889 32.4852 30.5719C32.5527 30.197 32.6223 29.8109 32.6674 29.4C32.7299 28.8312 32.7923 28.4046 32.8548 27.978C32.8756 27.8358 32.8965 27.6936 32.9173 27.5461L33.1672 25.6921L33.4171 24.1753L33.667 22.6584C33.7086 22.4056 33.7503 22.1739 33.7919 21.9421C33.8336 21.7104 33.8752 21.4786 33.9169 21.2258C33.9169 21.0994 33.9377 20.9941 33.9585 20.8888C33.9794 20.7834 34.0002 20.6781 34.0002 20.5517C34.0835 20.636 34.1668 20.7202 34.1668 20.8888C34.2084 21.0573 34.2293 21.2258 34.2501 21.3944C34.2709 21.5629 34.2917 21.7315 34.3334 21.9L34.6666 23.8382C34.7499 24.3438 34.8332 24.8494 34.9165 25.4393C34.9581 25.8185 35.0206 26.1978 35.0831 26.577C35.1455 26.9562 35.208 27.3354 35.2497 27.7146C35.333 28.473 35.4996 29.4843 35.6662 30.327C35.8328 30.9168 35.9161 31.5067 35.9994 32.0966L35.9994 32.0966C36.166 32.6865 36.2493 33.3607 36.3326 34.0348C36.4992 34.709 36.5825 35.2989 36.6658 35.973C36.7022 36.2309 36.7545 36.521 36.8088 36.8222C36.8788 37.2099 36.9521 37.6161 36.9989 37.9955C37.0822 38.5011 37.1655 39.091 37.2488 39.6809C37.2905 39.9758 37.3321 40.2497 37.3738 40.5236C37.4154 40.7975 37.4571 41.0713 37.4987 41.3663L37.4988 41.3666C37.5821 41.9564 37.6654 42.5462 37.7486 43.0517C37.7877 43.2492 37.8084 43.4283 37.828 43.5975C37.8503 43.7891 37.871 43.9682 37.9152 44.1472C37.9152 44.4 37.9152 44.5685 37.8319 44.7371C37.7486 44.9899 37.582 45.327 37.4154 45.5798L36.9156 46.5067L36.4159 47.518C36.2493 47.7708 36.2493 48.1079 36.2493 48.445V48.6978L36.3326 48.782H36.4159H37.8319C37.9152 48.782 38.0818 48.6978 38.0818 48.6135L39.1647 46.6753C39.3313 46.3803 39.5187 46.0643 39.7062 45.7483C39.8936 45.4323 40.081 45.1163 40.2476 44.8214C40.4142 44.5685 40.4975 44.3157 40.4142 43.9787C40.3309 43.6416 40.2684 43.3045 40.206 42.9674C40.1435 42.6303 40.081 42.2933 39.9977 41.9562C39.9144 41.4506 39.8103 40.9449 39.7062 40.4393C39.602 39.9337 39.4979 39.4281 39.4146 38.9225C39.1647 37.9112 38.9981 36.9843 38.8315 35.973C38.7748 35.6573 38.7084 35.3123 38.6389 34.9513C38.5044 34.2522 38.3583 33.4932 38.2484 32.7708C38.1584 32.1788 38.0441 31.636 37.9317 31.1026C37.8361 30.6489 37.7419 30.2019 37.6653 29.7371C37.6237 29.4 37.5612 29.084 37.4987 28.768C37.4363 28.452 37.3738 28.136 37.3321 27.7989C37.2488 27.209 37.1655 26.6191 36.9989 26.0292C36.9156 25.6079 36.8324 25.2076 36.7491 24.8073C36.6658 24.407 36.5825 24.0067 36.4992 23.5854C36.4159 23.4169 36.4159 23.164 36.4159 22.9955C36.4477 23.0277 36.4795 23.0476 36.5067 23.0646C36.5506 23.0921 36.5825 23.112 36.5825 23.164C37.0822 23.6697 37.4987 24.2595 37.9152 24.8494L39.9977 27.5461L41.9969 30.0742L44.0794 32.8551L45.9119 35.2146L47.9944 37.9955C48.4525 38.5854 48.8898 39.1542 49.3271 39.7229C49.7645 40.2918 50.2018 40.8606 50.66 41.4506ZM28.8323 32.1238C28.8473 32.1 28.8623 32.0773 28.8773 32.0545C28.9189 31.9913 28.9606 31.9281 29.0022 31.8438V31.7596L28.9189 31.8438C28.9189 31.886 28.8981 31.9281 28.8773 31.9702C28.8565 32.0124 28.8356 32.0545 28.8356 32.0966C28.8356 32.1068 28.8344 32.1158 28.8323 32.1238ZM42.02 50.4188C42.0166 50.4061 42.017 50.398 42.0211 50.3927C42.0285 50.3832 42.0482 50.3832 42.0802 50.3832C42.0465 50.3832 42.0265 50.3969 42.02 50.4188ZM42.0802 50.5517C42.0466 50.4836 42.0265 50.443 42.02 50.4188C42.0105 50.4512 42.0305 50.5015 42.0802 50.5517Z" fill="white"/>
</svg>
